{
    "fluentMethods": true,
    "relationships": [
        {
            "relationshipType": "many-to-one",
            "relationshipName": "document",
            "otherEntityName": "documentEntity",
            "otherEntityField": "id",
            "ownerSide": true,
            "otherEntityRelationshipName": "purchase"
        },
        {
            "relationshipType": "many-to-one",
            "relationshipName": "client",
            "otherEntityName": "user",
            "otherEntityField": "id",
            "ownerSide": true,
            "otherEntityRelationshipName": "purchase"
        }
    ],
    "fields": [
        {
            "fieldName": "purchaseDate",
            "fieldType": "ZonedDateTime"
        }
    ],
    "changelogDate": "20170105205853",
    "entityTableName": "purchase",
    "dto": "no",
    "pagination": "pager",
    "service": "serviceImpl"
}
